Assignment 5: Forecasting with Prophet
…
Another hyperparameter to consider is the type of trend: linear or logistic. While this time-series does technically have a saturating minimum, as there cannot be a negative number riders, the data values are not approaching zero, so imposing that cutoff is not likely to have a strong impact on the model. Therefore, we will assume that a linear trend is reasonable for this time-series.

Section 3

From prior analysis, we know that there is weekly seasonality in the data set, and this is confirmed in the table below. The deafult Prophet model identifies this as additive seasonality, meaning that the variation does not change according to the level of the time-series.

Code

#Examine seasonality in the model
streetcar_train %>%
  model(prophet = prophet(ridership~growth(changepoint_range=0.9)+
                            season(period='week'))) %>%
  components() 

# A dable: 289 x 8 [1D]
# Key:     .model [1]
# :        ridership = trend * (1 + multiplicative_terms) + additive_terms +
#   .resid
   .model  day        ridership additive_terms multiplicative_terms trend  week
   <chr>   <date>         <dbl>          <dbl>                <dbl> <dbl> <dbl>
 1 prophet 2024-01-01      1084          -709.                    0 2189. -709.
 2 prophet 2024-01-02      2097          -442.                    0 2201. -442.
 3 prophet 2024-01-03      2368          -358.                    0 2212. -358.
 4 prophet 2024-01-04      2209          -354.                    0 2223. -354.
 5 prophet 2024-01-05      2403           335.                    0 2234.  335.
 6 prophet 2024-01-06      2975          1976.                    0 2245. 1976.
 7 prophet 2024-01-07      2579          -448.                    0 2256. -448.
 8 prophet 2024-01-08      2254          -709.                    0 2267. -709.
 9 prophet 2024-01-09      1950          -442.                    0 2279. -442.
10 prophet 2024-01-10      2178          -358.                    0 2290. -358.
# ℹ 279 more rows
# ℹ 1 more variable: .resid <dbl>
…
